Cochlea.Number,Section,Treatment,Background,IHC,OHC
T1_M1,S1,ntr,9.922,,
T1_M1,S2,ntr,9.922,,
T1_M1,S3,ntr,9.922,40.965,29.488
T1_M1,S4,ntr,9.922,,
T1_M1,S5,ntr,9.922,34.823,37.047
T1_M1,S6,ntr,9.922,38.205,40.39
T1_M1,S7,ntr,9.922,46.082,59.393
T1_M1,S8,ntr,9.922,47.852,57.021
T1_M1,S9,ntr,9.922,54.764,65.864
T1_M1,S10,ntr,9.922,52.053,65.036
T1_M1,S11,ntr,9.922,60.826,62.415
T1_M1,S12,ntr,9.922,43.424,42.704
T1_M1,S13,ntr,9.922,52.253,45.66
T1_M1,S14,ntr,9.922,58.33,49.341
T1_M1,S15,ntr,9.922,62.377,41.044
T1_M1,S16,ntr,9.922,53.396,33.735
T1_M1,S17,ntr,9.922,34.339,25.137
T1_M1,S18,ntr,9.922,31.388,28.176
T1_M1,S19,ntr,9.922,,
T1_M1,S20,ntr,9.922,,
T1_M2,S1,ntr,6.285,,
T1_M2,S2,ntr,6.285,,
T1_M2,S3,ntr,6.285,,
T1_M2,S4,ntr,6.285,27.9035,31.734
T1_M2,S5,ntr,6.285,28.269,37.721
T1_M2,S6,ntr,6.285,26.972,54.418
T1_M2,S7,ntr,6.285,24.849,48.343
T1_M2,S8,ntr,6.285,25.906,49.221
T1_M2,S9,ntr,6.285,28.072,49.783
T1_M2,S10,ntr,6.285,26.498,48.199
T1_M2,S11,ntr,6.285,29.777,52.914
T1_M2,S12,ntr,6.285,20.271,38.556
T1_M2,S13,ntr,6.285,20.949,33.385
T1_M2,S14,ntr,6.285,,
T1_M2,S15,ntr,6.285,20.775,27.993
T1_M2,S16,ntr,6.285,22.329,30.07
T1_M2,S17,ntr,6.285,25.775,29.218
T1_M2,S18,ntr,6.285,16.434,18.849
T1_M2,S19,ntr,6.285,,
T1_M2,S20,ntr,6.285,,
T2,S1,ntr,4.051,,
T2,S2,ntr,4.051,,
T2,S3,ntr,4.051,,
T2,S4,ntr,4.051,,
T2,S5,ntr,4.051,,17.131
T2,S6,ntr,4.051,16.15,29.908
T2,S7,ntr,4.051,18.667,34.57
T2,S8,ntr,4.051,20.612,41.215
T2,S9,ntr,4.051,23.824,50.652
T2,S10,ntr,4.051,25.944,54.43
T2,S11,ntr,4.051,24.554,52.99
T2,S12,ntr,4.051,20.352,38.584
T2,S13,ntr,4.051,23.336,51.313
T2,S14,ntr,4.051,26.4705,39.925
T2,S15,ntr,4.051,29.91,60.816
T2,S16,ntr,4.051,37.067,61.945
T2,S17,ntr,4.051,33.395,58.318
T2,S18,ntr,4.051,37.417,46.281
T2,S19,ntr,4.051,,
T2,S20,ntr,4.051,,
T3,S1,ntr,3.673,,
T3,S2,ntr,3.673,,
T3,S3,ntr,3.673,,
T3,S4,ntr,3.673,,
T3,S5,ntr,3.673,,10.022
T3,S6,ntr,3.673,,11.238
T3,S7,ntr,3.673,6.224,15.112
T3,S8,ntr,3.673,8.256,19.506
T3,S9,ntr,3.673,10.047,21.669
T3,S10,ntr,3.673,18.734,25.203
T3,S11,ntr,3.673,18.153,28.807
T3,S12,ntr,3.673,20.436,28.778
T3,S13,ntr,3.673,19.772,36.108
T3,S14,ntr,3.673,19.989,43.378
T3,S15,ntr,3.673,18.266,37.457
T3,S16,ntr,3.673,21.283,37.75
T3,S17,ntr,3.673,17.874,33.266
T3,S18,ntr,3.673,,
T3,S19,ntr,3.673,,
T3,S20,ntr,3.673,19.681,10.296
T6,S1,ntr,7.809,,
T6,S2,ntr,7.809,19.573,33.07
T6,S3,ntr,7.809,21.092,36.728
T6,S4,ntr,7.809,27.878,49.183
T6,S5,ntr,7.809,31.905,55.291
T6,S6,ntr,7.809,32.082,57.963
T6,S7,ntr,7.809,31.659,57.742
T6,S8,ntr,7.809,29.106,52.883
T6,S9,ntr,7.809,30.556,54.526
T6,S10,ntr,7.809,25.652,43.277
T6,S11,ntr,7.809,24.86,55.881
T6,S12,ntr,7.809,24.833,55.032
T6,S13,ntr,7.809,22.973,46.529
T6,S14,ntr,7.809,21.104,32.774
T6,S15,ntr,7.809,23.183,32.175
T6,S16,ntr,7.809,22.065,21.481
T6,S17,ntr,7.809,18.751,12.757
T6,S18,ntr,7.809,,
T6,S19,ntr,7.809,15.89,13.636
T6,S20,ntr,7.809,14.767,10.178
T7,S1,ntr,7.39,,
T7,S2,ntr,7.39,,
T7,S3,ntr,7.39,19.688,21.728
T7,S4,ntr,7.39,24.408,33.099
T7,S5,ntr,7.39,24.015,26.881
T7,S6,ntr,7.39,31.739,35.107
T7,S7,ntr,7.39,,
T7,S8,ntr,7.39,,
T7,S9,ntr,7.39,29.578,50.162
T7,S10,ntr,7.39,27.625,47.445
T7,S11,ntr,7.39,30.305,41.451
T7,S12,ntr,7.39,26.665,41.329
T7,S13,ntr,7.39,32.744,35.907
T7,S14,ntr,7.39,34.758,30.653
T7,S15,ntr,7.39,28.146,24.352
T7,S16,ntr,7.39,31.759,38.073
T7,S17,ntr,7.39,32.215,39.505
T7,S18,ntr,7.39,,
T7,S19,ntr,7.39,32.262,15.552
T7,S20,ntr,7.39,28.133,16.308
T8,S1,ntr,12.615,,
T8,S2,ntr,12.615,,
T8,S3,ntr,12.615,,
T8,S4,ntr,12.615,,
T8,S5,ntr,12.615,,
T8,S6,ntr,12.615,,
T8,S7,ntr,12.615,,
T8,S8,ntr,12.615,,
T8,S9,ntr,12.615,25.126,36.817
T8,S10,ntr,12.615,28.928,48.687
T8,S11,ntr,12.615,30.088,53.287
T8,S12,ntr,12.615,29.24,52.512
T8,S13,ntr,12.615,,
T8,S14,ntr,12.615,37.532,71.113
T8,S15,ntr,12.615,34.053,65.534
T8,S16,ntr,12.615,40.358,61.351
T8,S17,ntr,12.615,58.431,49.78
T8,S18,ntr,12.615,54.196,50.279
T8,S19,ntr,12.615,,
T8,S20,ntr,12.615,,
T9,S1,ntr,9.858,,
T9,S2,ntr,9.858,,
T9,S3,ntr,9.858,,
T9,S4,ntr,9.858,,
T9,S5,ntr,9.858,18.448,10.971
T9,S6,ntr,9.858,13.041,24.594
T9,S7,ntr,9.858,15.574,38.089
T9,S8,ntr,9.858,18.965,45.157
T9,S9,ntr,9.858,24.413,67.191
T9,S10,ntr,9.858,27.102,75.13
T9,S11,ntr,9.858,27.887,74.725
T9,S12,ntr,9.858,24.376,66.738
T9,S13,ntr,9.858,23.263,60.522
T9,S14,ntr,9.858,24.84,59.464
T9,S15,ntr,9.858,21.321,53.632
T9,S16,ntr,9.858,25.949,45.381
T9,S17,ntr,9.858,28.989,35.708
T9,S18,ntr,9.858,27.273,20.918
T9,S19,ntr,9.858,33.674,24.808
T9,S20,ntr,9.858,44.994,24.619
T10,S1,ntr,11.396,,
T10,S2,ntr,11.396,4.781,7.805
T10,S3,ntr,11.396,5.763,9.739
T10,S4,ntr,11.396,4.512,7.459
T10,S5,ntr,11.396,5.801,16.191
T10,S6,ntr,11.396,12.063,25.508
T10,S7,ntr,11.396,14.712,25.28
T10,S8,ntr,11.396,20.18,36.405
T10,S9,ntr,11.396,23.409,46.693
T10,S10,ntr,11.396,28.875,50.943
T10,S11,ntr,11.396,25.944,40.849
T10,S12,ntr,11.396,29.293,41.389
T10,S13,ntr,11.396,33.535,62.318
T10,S14,ntr,11.396,31.946,50.177
T10,S15,ntr,11.396,28.888,47.237
T10,S16,ntr,11.396,37.145,43.614
T10,S17,ntr,11.396,27.331,30.418
T10,S18,ntr,11.396,,34.347
T10,S19,ntr,11.396,,25.207
T10,S20,ntr,11.396,,18.765
T11,S1,ntr,6.738,9.455,13.76
T11,S2,ntr,6.738,,
T11,S3,ntr,6.738,15.376,25.428
T11,S4,ntr,6.738,,
T11,S5,ntr,6.738,,
T11,S6,ntr,6.738,22.455,22.02
T11,S7,ntr,6.738,,
T11,S8,ntr,6.738,28.217,32.672
T11,S9,ntr,6.738,28.088,38.088
T11,S10,ntr,6.738,26.063,43.297
T11,S11,ntr,6.738,22.436,29.617
T11,S12,ntr,6.738,,
T11,S13,ntr,6.738,22.616,17.616
T11,S14,ntr,6.738,25.693,15.846
T11,S15,ntr,6.738,15.623,10.61
T11,S16,ntr,6.738,, 
T11,S17,ntr,6.738,,
T11,S18,ntr,6.738,21.811,14.975
T11,S19,ntr,6.738,28.262,26.747
T11,S20,ntr,6.738,21.403,19.281
